…
## Predicting using “current temp”

Leave one year out CV for RMSE, leaving out years 2000-2021 to be most
relevant (and didn’t change much when left out 1967-1999 additionally)
and because the modeling takes much longer.

    ## `summarise()` has grouped output by 'station_code'. You can override using the
    ## `.groups` argument.

    ## # A tibble: 100 × 5
    ## # Groups:   station_code [20]
    ##    station_code lag   mse_err.tmin mse_err.tmax mse_err.tavg
    ##    <chr>        <chr>        <dbl>        <dbl>        <dbl>
    ##  1 KBNA         lag1          6.79         7.74         6.06
    ##  2 KBNA         lag2          9.55        10.4          8.82
    ##  3 KBNA         lag3         10.6         11.3          9.79
    ##  4 KBNA         lag4         11.0         11.7         10.2 
    ##  5 KBNA         lag5         11.1         12.0         10.3 
    ##  6 KBOI         lag1          5.34         6.45         4.98
    ##  7 KBOI         lag2          7.19         8.99         7.21
    ##  8 KBOI         lag3          8.02        10.2          8.24
    ##  9 KBOI         lag4          8.49        10.8          8.83
    ## 10 KBOI         lag5          8.78        11.1          9.18
    ## # … with 90 more rows
…
